Rail inclination@en <--> Rail : 0.7071067811865475
Rail inclination@en <--> Rail : 0.7071067811865475
Track system separation info@en <--> Track system : 0.7071067811865475
Point <--> Discretized Point : 0.7071067811865475
Point <--> Cartesian Point : 0.7071067811865475
Point <--> Point machine : 0.7071067811865475
Point <--> Point : 1.0
Signal orientation@en <--> Signal : 0.7071067811865475
Hot axle box detector direction@en <--> Hot axle box detector : 0.8944271909999159
Hot axle box detector direction@en <--> Hot axle box detector Realisation\" : 0.8
