Segment <--> Segment Length\" : 0.7071067811865475
Segment <--> Segment Length\" : 0.7071067811865475
Segment <--> Segment Length\" : 0.7071067811865475
category <--> Track category : 0.7071067811865475
bridge <--> Cable bridge : 0.7071067811865475
Track <--> Track edge\" : 0.7071067811865475
Track <--> Track edge\" : 0.7071067811865475
Track <--> Track edge\" : 0.7071067811865475
Track <--> Track Alignment : 0.7071067811865475
Track <--> Track edge\" : 0.7071067811865475
Track <--> Track system : 0.7071067811865475
Track <--> Track : 1.0
Track <--> Track category\" : 0.7071067811865475
Track <--> Track edge\" : 0.7071067811865475
Track <--> Track slab : 0.7071067811865475
Track <--> Track edge\" : 0.7071067811865475
Track <--> Track nodes\" : 0.7071067811865475
Track <--> Track Circuit : 0.7071067811865475
Track <--> Track gauge\" : 0.7071067811865475
Track <--> Track gauge\" : 0.7071067811865475
Track <--> Track edge\" : 0.7071067811865475
Track <--> Track edge\" : 0.7071067811865475
Track <--> Track At : 0.7071067811865475
Track <--> Track edge\" : 0.7071067811865475
Track <--> Track edge\" : 0.7071067811865475
Track <--> Track edge\" : 0.7071067811865475
Track <--> Track edge\" : 0.7071067811865475
Track <--> Track Gauge\" : 0.7071067811865475
Track <--> Track substructure : 0.7071067811865475
Track <--> Track part : 0.7071067811865475
Track <--> Track category : 0.7071067811865475
Track <--> Track : 1.0
Track <--> Track category\" : 0.7071067811865475
Track <--> Track Number\" : 0.7071067811865475
Track <--> (Signalling) Track : 0.7071067811865475
Track <--> Track edge\" : 0.7071067811865475
Track <--> Track edge\" : 0.7071067811865475
Track <--> Track edge(s)\" : 0.7071067811865475
Track <--> Track edge\" : 0.7071067811865475
Track <--> Track Association\" : 0.7071067811865475
Track <--> Track LRS-Broken-Segment : 0.7071067811865475
Track <--> Track edge\" : 0.7071067811865475
Track <--> Track Base : 0.7071067811865475
Track <--> Track LRS-Segment : 0.7071067811865475
Track <--> Track edge\" : 0.7071067811865475
Track <--> Track scale : 0.7071067811865475
Track <--> Track Node : 0.7071067811865475
Track <--> Track LRS : 0.7071067811865475
Track <--> Track edge\" : 0.7071067811865475
Track <--> Track panel : 0.7071067811865475
Track <--> Track edge\" : 0.7071067811865475
Track <--> Track Functional : 0.7071067811865475
Track <--> Track edge\" : 0.7071067811865475
Track <--> Track edge\" : 0.7071067811865475
Track <--> Track Circuit : 0.7071067811865475
Track <--> Track Section : 0.7071067811865475
Track <--> Track edge\" : 0.7071067811865475
Track <--> Track panel\" : 0.7071067811865475
Track <--> Track Spatial : 0.7071067811865475
Track <--> Track coverage : 0.7071067811865475
Track <--> Track sidewalk : 0.7071067811865475
Track <--> Track edge\" : 0.7071067811865475
Track <--> Track positioning : 0.7071067811865475
Track <--> Track Asset : 0.7071067811865475
Track <--> Track edge\" : 0.7071067811865475
Track <--> Track edge\" : 0.7071067811865475
Track <--> Track edge\" : 0.7071067811865475
Track <--> Track Alignment : 0.7071067811865475
Track <--> Track edge\" : 0.7071067811865475
Track <--> Track system : 0.7071067811865475
Track <--> Track : 1.0
Track <--> Track category\" : 0.7071067811865475
Track <--> Track edge\" : 0.7071067811865475
Track <--> Track slab : 0.7071067811865475
Track <--> Track edge\" : 0.7071067811865475
Track <--> Track nodes\" : 0.7071067811865475
Track <--> Track Circuit : 0.7071067811865475
Track <--> Track gauge\" : 0.7071067811865475
Track <--> Track gauge\" : 0.7071067811865475
Track <--> Track edge\" : 0.7071067811865475
Track <--> Track edge\" : 0.7071067811865475
Track <--> Track At : 0.7071067811865475
Track <--> Track edge\" : 0.7071067811865475
Track <--> Track edge\" : 0.7071067811865475
Track <--> Track edge\" : 0.7071067811865475
Track <--> Track edge\" : 0.7071067811865475
Track <--> Track Gauge\" : 0.7071067811865475
Track <--> Track substructure : 0.7071067811865475
Track <--> Track part : 0.7071067811865475
Track <--> Track category : 0.7071067811865475
Track <--> Track : 1.0
Track <--> Track category\" : 0.7071067811865475
Track <--> Track Number\" : 0.7071067811865475
Track <--> (Signalling) Track : 0.7071067811865475
Track <--> Track edge\" : 0.7071067811865475
Track <--> Track edge\" : 0.7071067811865475
Track <--> Track edge(s)\" : 0.7071067811865475
Track <--> Track edge\" : 0.7071067811865475
Track <--> Track Association\" : 0.7071067811865475
Track <--> Track LRS-Broken-Segment : 0.7071067811865475
Track <--> Track edge\" : 0.7071067811865475
Track <--> Track Base : 0.7071067811865475
Track <--> Track LRS-Segment : 0.7071067811865475
Track <--> Track edge\" : 0.7071067811865475
Track <--> Track scale : 0.7071067811865475
Track <--> Track Node : 0.7071067811865475
Track <--> Track LRS : 0.7071067811865475
Track <--> Track edge\" : 0.7071067811865475
Track <--> Track panel : 0.7071067811865475
Track <--> Track edge\" : 0.7071067811865475
Track <--> Track Functional : 0.7071067811865475
Track <--> Track edge\" : 0.7071067811865475
Track <--> Track edge\" : 0.7071067811865475
Track <--> Track Circuit : 0.7071067811865475
Track <--> Track Section : 0.7071067811865475
Track <--> Track edge\" : 0.7071067811865475
Track <--> Track panel\" : 0.7071067811865475
Track <--> Track Spatial : 0.7071067811865475
Track <--> Track coverage : 0.7071067811865475
Track <--> Track sidewalk : 0.7071067811865475
Track <--> Track edge\" : 0.7071067811865475
Track <--> Track positioning : 0.7071067811865475
Track <--> Track Asset : 0.7071067811865475
Cabinet <--> Cabinet Realisation\" : 0.7071067811865475
Cabinet <--> Cabinet : 1.0
Cabinet <--> Cabinet types : 0.7071067811865475
signal <--> Acoustic signal : 0.7071067811865475
signal <--> Light signal : 0.7071067811865475
battery <--> Trackside battery : 0.7071067811865475
Cabling <--> Cabling Alignment : 0.7071067811865475
Cabling <--> Cabling accessory : 0.7071067811865475
section <--> Neutral section : 0.7071067811865475
section <--> Feeding section : 0.7071067811865475
section <--> Tensioning section : 0.7071067811865475
section <--> Line section : 0.7071067811865475
description <--> Parameterized description : 0.7071067811865475
Frog <--> Frog : 1.0
Frog <--> Frog Realisation\" : 0.7071067811865475
Frog <--> Frog angle\" : 0.7071067811865475
Frog <--> Frog Angle : 0.7071067811865475
Frog <--> Frog moveable\" : 0.7071067811865475
Frog <--> Frog Bend : 0.7071067811865475
Frog <--> Frog Material : 0.7071067811865475
Frog <--> Frog Aggregation\" : 0.7071067811865475
Frog <--> Frog bend\" : 0.7071067811865475
point <--> Access point : 0.7071067811865475
point <--> edge point : 0.7071067811865475
point <--> Operational point : 0.7071067811865475
block <--> Scotch block : 0.7071067811865475
condition <--> Installed condition : 0.7071067811865475
2 <--> Prio 2 : 0.7071067811865475
Cabling <--> Cabling Alignment : 0.7071067811865475
Cabling <--> Cabling accessory : 0.7071067811865475
rail <--> Guard rail : 0.7071067811865475
rail <--> Check rail : 0.7071067811865475
Transformer <--> Transformer : 1.0
Transformer <--> Transformer box : 0.7071067811865475
Transformer <--> Abs_Signalling non-trackside equipment Association\" : 0.7071067811865475
Transformer <--> Instrument Transformer : 0.7071067811865475
Transformer <--> Power Transformer : 0.7071067811865475
telephone <--> Office telephone : 0.7071067811865475
telephone <--> Trackside telephone : 0.7071067811865475
Interlocking <--> Interlocking device : 0.7071067811865475
Common <--> Common supplying : 0.7071067811865475
Common <--> Common supplying : 0.7071067811865475
Signal <--> Signal : 1.0
condition <--> Installed condition : 0.7071067811865475
+isDefinedByAxleCountingHead <--> Prio 2 : 0.7071067811865475
Building <--> Technical Building : 0.7071067811865475
Building <--> Building foundation : 0.7071067811865475
EA_PrimitiveTypes_Package <--> EA_PrimitiveTypes_Package : 1.0
panel <--> Track panel : 0.7071067811865475
panel <--> Turnout panel : 0.7071067811865475
panel <--> Dilatation panel : 0.7071067811865475
battery <--> Trackside battery : 0.7071067811865475
boolean <--> boolean : 1.0
gantry <--> Cable gantry : 0.7071067811865475
appliesToRbc <--> Prio 2 : 0.7071067811865475
Box <--> Box : 1.0
Box <--> Box Realisation\" : 0.7071067811865475
Box <--> Box types : 0.7071067811865475
Box <--> Box Realisation\" : 0.7071067811865475
Signal <--> Signal : 1.0
Crossing <--> Crossing of\" : 0.7071067811865475
boolean <--> boolean : 1.0
Cable <--> Cable Realisation\" : 0.7071067811865475
Cable <--> Cable Association\" : 0.7071067811865475
Cable <--> Cable UTX : 0.7071067811865475
Cable <--> Cable sheathing : 0.7071067811865475
Cable <--> Cable Association\" : 0.7071067811865475
Cable <--> Cable Association\" : 0.7071067811865475
Cable <--> Cable gantry : 0.7071067811865475
Cable <--> Cable : 1.0
Cable <--> Cable chamber : 0.7071067811865475
Cable <--> Cable bridge : 0.7071067811865475
Cable <--> Cable fitting : 0.7071067811865475
Cable <--> Cable Realisation\" : 0.7071067811865475
Cable <--> Cable Realisation\" : 0.7071067811865475
Cable <--> Cable route : 0.7071067811865475
Cable <--> Cable Aggregation\" : 0.7071067811865475
Cable <--> Cable pit : 0.7071067811865475
Cable <--> Cable : 1.0
Cable <--> Cable trench : 0.7071067811865475
Common <--> Common supplying : 0.7071067811865475
Signal <--> Signal : 1.0
Balise <--> Balise : 1.0
Balise <--> Balise : 1.0
Balise <--> Balise Realisation\" : 0.7071067811865475
Orientation <--> Bumper Orientation : 0.7071067811865475
Orientation <--> Turnout Orientation : 0.7071067811865475
Orientation <--> Orientation : 1.0
Common <--> Common supplying : 0.7071067811865475
Signal <--> Signal : 1.0
description <--> Parameterized description : 0.7071067811865475
Signal <--> Signal : 1.0
pair <--> Wire pair : 0.7071067811865475
description <--> Parameterized description : 0.7071067811865475
standard <--> standard ballast\" : 0.7071067811865475
Lock <--> Lock Realisation\" : 0.7071067811865475
Lock <--> Lock combination : 0.7071067811865475
Lock <--> Lock : 1.0
Lock <--> Lock Association\" : 0.7071067811865475
Lock <--> Lock Association\" : 0.7071067811865475
Lock <--> Lock : 1.0
Point <--> Discretized Point : 0.7071067811865475
Point <--> Cartesian Point : 0.7071067811865475
Point <--> Point machine : 0.7071067811865475
Point <--> Point : 1.0
channel <--> Drain channel : 0.7071067811865475
track <--> Slab track : 0.7071067811865475
Cabling : Cable route <--> Cable route : 0.7071067811865475
area <--> Service area : 0.7071067811865475
Shunting <--> Shunting yard : 0.7071067811865475
post <--> Traction post : 0.7071067811865475
post <--> Autotransformer post : 0.7071067811865475
post <--> Suffix post : 0.7071067811865475
Common <--> Common supplying : 0.7071067811865475
Line <--> Line Alignment : 0.7071067811865475
Line <--> Line : 1.0
Line <--> Line Kilometer\" : 0.7071067811865475
Line <--> Line positioning : 0.7071067811865475
Line <--> Line LRS : 0.7071067811865475
Line <--> Line Number\" : 0.7071067811865475
Line <--> Line Aggregation\" : 0.7071067811865475
Line <--> Overhead Line : 0.7071067811865475
Line <--> Line At : 0.7071067811865475
Line <--> Earthing Line : 0.7071067811865475
Line <--> Feeder Line : 0.7071067811865475
Line <--> Line section : 0.7071067811865475
foundation <--> OCS foundation : 0.7071067811865475
foundation <--> Building foundation : 0.7071067811865475
gantry <--> Cable gantry : 0.7071067811865475
protection <--> Bird protection : 0.7071067811865475
protection <--> Environnemental protection : 0.7071067811865475
Telephone <--> Telephone : 1.0
Telephone <--> Telephone Realisation\" : 0.7071067811865475
Common <--> Common supplying : 0.7071067811865475
Topology <--> Topology reference : 0.7071067811865475
Signalling <--> Signalling : 1.0
Signalling <--> Signalling Spatial : 0.7071067811865475
Signalling <--> Signalling Functional : 0.7071067811865475
limitedBySignal <--> Prio 2 : 0.7071067811865475
Edge <--> Edge : 1.0
Edge <--> Edge Association\" : 0.7071067811865475
Signal <--> Signal : 1.0
rail <--> Guard rail : 0.7071067811865475
rail <--> Check rail : 0.7071067811865475
Panel <--> Panel Type : 0.7071067811865475
Panel <--> Panel strengthening : 0.7071067811865475
appliesToSignal <--> Prio 2 : 0.7071067811865475
Signal <--> Signal : 1.0
description <--> Parameterized description : 0.7071067811865475
signal <--> Acoustic signal : 0.7071067811865475
signal <--> Light signal : 0.7071067811865475
stop <--> Vehicle stop : 0.7071067811865475
stop <--> Train stop : 0.7071067811865475
Cant <--> Cant right\" : 0.7071067811865475
Cant <--> Cant left\" : 0.7071067811865475
description <--> Parameterized description : 0.7071067811865475
int <--> int : 1.0
int <--> int : 1.0
Node <--> Node Association\" : 0.7071067811865475
Node <--> Node : 1.0
Node <--> Track Node : 0.7071067811865475
slab <--> Track slab : 0.7071067811865475
system <--> Monitoring system : 0.7071067811865475
system <--> Track system : 0.7071067811865475
system <--> Mooring system : 0.7071067811865475
system <--> Ticketing system : 0.7071067811865475
system <--> Catenary system : 0.7071067811865475
Overlap <--> Switched Overlap : 0.7071067811865475
Overlap <--> Insulated Overlap : 0.7071067811865475
Overlap <--> Connected Overlap : 0.7071067811865475
position <--> Relative position : 0.7071067811865475
description <--> Parameterized description : 0.7071067811865475
console <--> Desktop console : 0.7071067811865475
standard <--> standard ballast\" : 0.7071067811865475
Housing <--> Housing : 1.0
Housing <--> Housing Association\" : 0.7071067811865475
Housing <--> Housing : 1.0
Housing <--> Abs_Signalling equipment Association\" : 0.7071067811865475
Housing <--> Battery Association\" : 0.7071067811865475
description <--> Parameterized description : 0.7071067811865475
description <--> Parameterized description : 0.7071067811865475
Cabling : Cable route <--> Cable route : 0.7071067811865475
line <--> Feeder line : 0.7071067811865475
line <--> Overhead line : 0.7071067811865475
line <--> Earthing line : 0.7071067811865475
Track <--> Track edge\" : 0.7071067811865475
Track <--> Track edge\" : 0.7071067811865475
Track <--> Track edge\" : 0.7071067811865475
Track <--> Track Alignment : 0.7071067811865475
Track <--> Track edge\" : 0.7071067811865475
Track <--> Track system : 0.7071067811865475
Track <--> Track : 1.0
Track <--> Track category\" : 0.7071067811865475
Track <--> Track edge\" : 0.7071067811865475
Track <--> Track slab : 0.7071067811865475
Track <--> Track edge\" : 0.7071067811865475
Track <--> Track nodes\" : 0.7071067811865475
Track <--> Track Circuit : 0.7071067811865475
Track <--> Track gauge\" : 0.7071067811865475
Track <--> Track gauge\" : 0.7071067811865475
Track <--> Track edge\" : 0.7071067811865475
Track <--> Track edge\" : 0.7071067811865475
Track <--> Track At : 0.7071067811865475
Track <--> Track edge\" : 0.7071067811865475
Track <--> Track edge\" : 0.7071067811865475
Track <--> Track edge\" : 0.7071067811865475
Track <--> Track edge\" : 0.7071067811865475
Track <--> Track Gauge\" : 0.7071067811865475
Track <--> Track substructure : 0.7071067811865475
Track <--> Track part : 0.7071067811865475
Track <--> Track category : 0.7071067811865475
Track <--> Track : 1.0
Track <--> Track category\" : 0.7071067811865475
Track <--> Track Number\" : 0.7071067811865475
Track <--> (Signalling) Track : 0.7071067811865475
Track <--> Track edge\" : 0.7071067811865475
Track <--> Track edge\" : 0.7071067811865475
Track <--> Track edge(s)\" : 0.7071067811865475
Track <--> Track edge\" : 0.7071067811865475
Track <--> Track Association\" : 0.7071067811865475
Track <--> Track LRS-Broken-Segment : 0.7071067811865475
Track <--> Track edge\" : 0.7071067811865475
Track <--> Track Base : 0.7071067811865475
Track <--> Track LRS-Segment : 0.7071067811865475
Track <--> Track edge\" : 0.7071067811865475
Track <--> Track scale : 0.7071067811865475
Track <--> Track Node : 0.7071067811865475
Track <--> Track LRS : 0.7071067811865475
Track <--> Track edge\" : 0.7071067811865475
Track <--> Track panel : 0.7071067811865475
Track <--> Track edge\" : 0.7071067811865475
Track <--> Track Functional : 0.7071067811865475
Track <--> Track edge\" : 0.7071067811865475
Track <--> Track edge\" : 0.7071067811865475
Track <--> Track Circuit : 0.7071067811865475
Track <--> Track Section : 0.7071067811865475
Track <--> Track edge\" : 0.7071067811865475
Track <--> Track panel\" : 0.7071067811865475
Track <--> Track Spatial : 0.7071067811865475
Track <--> Track coverage : 0.7071067811865475
Track <--> Track sidewalk : 0.7071067811865475
Track <--> Track edge\" : 0.7071067811865475
Track <--> Track positioning : 0.7071067811865475
Track <--> Track Asset : 0.7071067811865475
Derailer <--> Derailer : 1.0
Derailer <--> Derailer Realisation\" : 0.7071067811865475
description <--> Parameterized description : 0.7071067811865475
channel <--> Drain channel : 0.7071067811865475
Crocodile <--> Crocodile : 1.0
Crocodile <--> Crocodile Realisation\" : 0.7071067811865475
