Sensor <--> Sensor : 1.0
Track edge\" <--> Track : 0.7071067811865475
Track edge\" <--> Track : 0.7071067811865475
Turnout Tongue <--> Turnout : 0.7071067811865475
Baseband unit <--> unit : 0.7071067811865475
Baseband unit <--> unit : 0.7071067811865475
Baseband unit <--> 0..1 : 0.7071067811865475
Track edge\" <--> Track : 0.7071067811865475
Track category\" <--> Track : 0.7071067811865475
Turnout Catalogue <--> Turnout : 0.7071067811865475
Rectifier Substation <--> Substation : 0.7071067811865475
Sector Association\" <--> Sector : 0.7071067811865475
Energy Functional <--> Energy : 0.7071067811865475
Neutral section Association\" <--> Sector : 0.7071067811865475
Return circuit Association\" <--> Sector : 0.7071067811865475
Track Circuit <--> Track : 0.7071067811865475
Turnout blade\" <--> Turnout : 0.7071067811865475
Track gauge\" <--> Track : 0.7071067811865475
Turnout superstructure <--> Turnout : 0.7071067811865475
Track edge\" <--> Track : 0.7071067811865475
Track edge\" <--> Track : 0.7071067811865475
Track edge\" <--> Track : 0.7071067811865475
Signalling <--> Signalling : 1.0
Track substructure <--> Track : 0.7071067811865475
Remote unit <--> unit : 0.7071067811865475
Remote unit <--> unit : 0.7071067811865475
Remote unit <--> 0..1 : 0.7071067811865475
Track <--> Track :Turnout : 0.7071067811865475
Track <--> Track :Crossing : 0.7071067811865475
Track <--> Track : 1.0
Track <--> Track :Turnout : 0.7071067811865475
Track category\" <--> Track : 0.7071067811865475
Track Number\" <--> Track : 0.7071067811865475
(Signalling) Track <--> Track : 0.7071067811865475
Track edge\" <--> Track : 0.7071067811865475
Topology reference <--> Topology : 0.7071067811865475
Topology reference <--> reference : 0.7071067811865475
Turnout name\" <--> Turnout : 0.7071067811865475
Track edge(s)\" <--> Track : 0.7071067811865475
double <--> double : 1.0
Turnout Heater\" <--> Turnout : 0.7071067811865475
Track Association\" <--> Track : 0.7071067811865475
EA_PrimitiveTypes_Package <--> EA_PrimitiveTypes_Package : 1.0
Turnout catalogue\" <--> Turnout : 0.7071067811865475
Track LRS-Broken-Segment <--> Track : 0.7071067811865475
Turnout heating <--> Turnout : 0.7071067811865475
Turnout Incline <--> Turnout : 0.7071067811865475
Sector Aggregation\" <--> Sector : 0.7071067811865475
Common supplying <--> Common : 0.7071067811865475
Turnout panel\" <--> Turnout : 0.7071067811865475
Signalling Spatial <--> Signalling : 0.7071067811865475
Connection interface <--> Connection : 0.7071067811865475
Track Base <--> Base : 0.7071067811865475
Track Base <--> Track : 0.7071067811865475
Lightning arrester Association\" <--> Substation : 0.7071067811865475
Track edge\" <--> Track : 0.7071067811865475
Track scale <--> Track : 0.7071067811865475
Track scale <--> scale : 0.7071067811865475
Turnout Curvature <--> Turnout : 0.7071067811865475
Track panel <--> Track : 0.7071067811865475
Signalling Functional <--> Signalling : 0.7071067811865475
Sector Association\" <--> Sector : 0.7071067811865475
Turnout Association\" <--> Turnout : 0.7071067811865475
Signal <--> Signal : 1.0
Track edge\" <--> Track : 0.7071067811865475
Parameterized description <--> description : 0.7071067811865475
Parameterized description <--> description : 0.7071067811865475
Track Circuit <--> Track : 0.7071067811865475
Track Section <--> Track : 0.7071067811865475
Network properties <--> Network : 0.7071067811865475
Network properties <--> Network : 0.7071067811865475
Track edge\" <--> Track : 0.7071067811865475
Track Spatial <--> Track : 0.7071067811865475
Track coverage <--> Track : 0.7071067811865475
Track sidewalk <--> Track : 0.7071067811865475
Track edge\" <--> Track : 0.7071067811865475
Sector Association\" <--> Sector : 0.7071067811865475
int <--> int : 1.0
Turnout panel\" <--> Turnout : 0.7071067811865475
Ground module <--> Ground : 0.7071067811865475
Turnout <--> Turnout : 1.0
Energy Spatial <--> Energy : 0.7071067811865475
Substation <--> Substation : 1.0
Turnout TdS <--> Turnout : 0.7071067811865475
Turnout panel <--> Turnout : 0.7071067811865475
Track edge\" <--> Track : 0.7071067811865475
Track Alignment <--> Track : 0.7071067811865475
Track system <--> Track : 0.7071067811865475
Track <--> Track :Turnout : 0.7071067811865475
Track <--> Track :Crossing : 0.7071067811865475
Track <--> Track : 1.0
Track <--> Track :Turnout : 0.7071067811865475
Master unit <--> unit : 0.7071067811865475
Master unit <--> unit : 0.7071067811865475
Master unit <--> 0..1 : 0.7071067811865475
Track edge\" <--> Track : 0.7071067811865475
Track slab <--> Track : 0.7071067811865475
Energy <--> Energy : 1.0
Track edge\" <--> Track : 0.7071067811865475
Track nodes\" <--> Track : 0.7071067811865475
Positioning <--> Positioning : 1.0
Orientation <--> Orientation : 1.0
Frog Angle <--> Angle : 0.7071067811865475
Prio 2 <--> 2 : 0.7071067811865475
Prio 2 <--> 0..* : 0.7071067811865475
Track gauge\" <--> Track : 0.7071067811865475
Track At <--> Track : 0.7071067811865475
Protective barrier Association\" <--> Sector : 0.7071067811865475
Track edge\" <--> Track : 0.7071067811865475
Track edge\" <--> Track : 0.7071067811865475
Track edge\" <--> Track : 0.7071067811865475
Turnout tongue\" <--> Turnout : 0.7071067811865475
Track Gauge\" <--> Track : 0.7071067811865475
Cant right\" <--> Cant : 0.7071067811865475
Oil retention tray Association\" <--> Substation : 0.7071067811865475
Track part <--> Track : 0.7071067811865475
Track category <--> Track : 0.7071067811865475
Energy <--> Energy : 1.0
Sector <--> Sector : 1.0
Left Turnout\" <--> Left : 0.7071067811865475
Energy conversion device Aggregation\" <--> Substation : 0.7071067811865475
boolean <--> boolean : 1.0
Track edge\" <--> Track : 0.7071067811865475
Speed regulator <--> Speed : 0.7071067811865475
Track edge\" <--> Track : 0.7071067811865475
Bumper Orientation <--> Orientation : 0.7071067811865475
Sector Association\" <--> Sector : 0.7071067811865475
Right Turnout\" <--> Right : 0.7071067811865475
Turnout Orientation <--> Turnout : 0.7071067811865475
Turnout Orientation <--> Orientation : 0.7071067811865475
Track edge\" <--> Track : 0.7071067811865475
Track LRS-Segment <--> Track : 0.7071067811865475
Date <--> Date : 1.0
Power supply facility spatial structure Association\" <--> Sector : 0.7071067811865475
Track Node <--> Track : 0.7071067811865475
Track LRS <--> Track : 0.7071067811865475
Elementary sector Association\" <--> Sector : 0.7071067811865475
Track edge\" <--> Track : 0.7071067811865475
Track edge\" <--> Track : 0.7071067811865475
Track Functional <--> Track : 0.7071067811865475
Power transformer Aggregation\" <--> Substation : 0.7071067811865475
Other equipment <--> Other : 0.7071067811865475
Protective canope Association\" <--> Sector : 0.7071067811865475
Turnout Panel\" <--> Turnout : 0.7071067811865475
Track edge\" <--> Track : 0.7071067811865475
Date <--> Date : 1.0
Track panel\" <--> Track : 0.7071067811865475
Cant left\" <--> Cant : 0.7071067811865475
Length <--> Length : 1.0
Ground bus <--> Ground : 0.7071067811865475
Track positioning <--> Track : 0.7071067811865475
Track Asset <--> Track : 0.7071067811865475
Crossing of\" <--> Crossing : 0.7071067811865475
