+netElement <--> netElement : 1.0
+netElement <--> netElement : 1.0
+netElement <--> netElement : 1.0
+netElement <--> netElement : 1.0
+netElement <--> netElement : 1.0
+netElement <--> netElement : 1.0
+netElement <--> netElement : 1.0
+netElement <--> netElement : 1.0
+netElement <--> netElement : 1.0
+netElement <--> netElement : 1.0
+netElement <--> netElement : 1.0
+netElement <--> netElement : 1.0
+netElement <--> netElement : 1.0
+netElement <--> netElement : 1.0
+netElement <--> netElement : 1.0
+netElement <--> netElement : 1.0
+netElement <--> netElement : 1.0
+netElement <--> netElement : 1.0
+netElement <--> netElement : 1.0
+netElement <--> netElement : 1.0
+netElement <--> netElement : 1.0
+netElement <--> netElement : 1.0
+netElement <--> netElement : 1.0
+netElement <--> netElement : 1.0
+netElement <--> netElement : 1.0
+netElement <--> netElement : 1.0
+netElement <--> netElement : 1.0
+netElement <--> netElement : 1.0
+netElement <--> netElement : 1.0
value <--> value : 1.0
value <--> value : 1.0
value <--> value : 1.0
value <--> value : 1.0
value <--> value : 1.0
value <--> value : 1.0
value <--> value : 1.0
value <--> value : 1.0
value <--> value : 1.0
value <--> value : 1.0
value <--> value : 1.0
value <--> value : 1.0
value <--> value : 1.0
value <--> value : 1.0
description <--> description : 1.0
description <--> description : 1.0
description <--> description : 1.0
description <--> description : 1.0
description <--> description : 1.0
description <--> description : 1.0
description <--> description : 1.0
description <--> description : 1.0
description <--> description : 1.0
description <--> description : 1.0
description <--> description : 1.0
description <--> description : 1.0
value <--> value : 1.0
value <--> value : 1.0
value <--> value : 1.0
value <--> value : 1.0
value <--> value : 1.0
value <--> value : 1.0
value <--> value : 1.0
value <--> value : 1.0
value <--> value : 1.0
value <--> value : 1.0
value <--> value : 1.0
value <--> value : 1.0
value <--> value : 1.0
value <--> value : 1.0
unit <--> unit : 1.0
WindSpeed <--> WindSpeed : 1.0
1 <--> id : 1.0
1 <--> id : 1.0
1 <--> id : 1.0
1 <--> id : 1.0
1 <--> id : 1.0
1 <--> id : 1.0
1 <--> id : 1.0
1 <--> id : 1.0
1 <--> id : 1.0
1 <--> id : 1.0
1 <--> id : 1.0
1 <--> id : 1.0
1 <--> id : 1.0
1 <--> id : 1.0
1 <--> id : 1.0
1 <--> id : 1.0
1 <--> id : 1.0
1 <--> id : 1.0
1 <--> id : 1.0
1 <--> id : 1.0
1 <--> id : 1.0
1 <--> id : 1.0
1 <--> id : 1.0
1 <--> id : 1.0
1 <--> id : 1.0
1 <--> id : 1.0
1 <--> id : 1.0
1 <--> id : 1.0
1 <--> id : 1.0
1 <--> id : 1.0
1 <--> id : 1.0
1 <--> id : 1.0
1 <--> id : 1.0
1 <--> id : 1.0
1 <--> id : 1.0
1 <--> id : 1.0
1 <--> id : 1.0
1 <--> id : 1.0
1 <--> id : 1.0
1 <--> id : 1.0
1 <--> id : 1.0
1 <--> id : 1.0
1 <--> id : 1.0
1 <--> id : 1.0
1 <--> id : 1.0
1 <--> id : 1.0
1 <--> id : 1.0
1 <--> id : 1.0
1 <--> id : 1.0
1 <--> id : 1.0
1 <--> id : 1.0
1 <--> id : 1.0
1 <--> id : 1.0
1 <--> id : 1.0
1 <--> id : 1.0
1 <--> id : 1.0
1 <--> id : 1.0
1 <--> id : 1.0
1 <--> id : 1.0
1 <--> id : 1.0
1 <--> id : 1.0
1 <--> id : 1.0
1 <--> id : 1.0
1 <--> id : 1.0
1 <--> id : 1.0
1 <--> id : 1.0
1 <--> id : 1.0
1 <--> id : 1.0
1 <--> id : 1.0
1 <--> id : 1.0
1 <--> id : 1.0
1 <--> id : 1.0
1 <--> id : 1.0
1 <--> id : 1.0
1 <--> id : 1.0
1 <--> id : 1.0
1 <--> id : 1.0
1 <--> id : 1.0
1 <--> id : 1.0
1 <--> id : 1.0
1 <--> id : 1.0
1 <--> id : 1.0
1 <--> id : 1.0
1 <--> id : 1.0
1 <--> id : 1.0
1 <--> id : 1.0
1 <--> id : 1.0
1 <--> id : 1.0
1 <--> id : 1.0
1 <--> id : 1.0
1 <--> id : 1.0
1 <--> id : 1.0
1 <--> id : 1.0
1 <--> id : 1.0
1 <--> id : 1.0
1 <--> id : 1.0
1 <--> id : 1.0
1 <--> id : 1.0
1 <--> id : 1.0
1 <--> id : 1.0
1 <--> id : 1.0
1 <--> id : 1.0
1 <--> id : 1.0
1 <--> id : 1.0
1 <--> id : 1.0
1 <--> id : 1.0
1 <--> id : 1.0
1 <--> id : 1.0
1 <--> id : 1.0
1 <--> id : 1.0
1 <--> id : 1.0
1 <--> id : 1.0
1 <--> id : 1.0
1 <--> id : 1.0
1 <--> id : 1.0
1 <--> id : 1.0
1 <--> id : 1.0
1 <--> id : 1.0
1 <--> id : 1.0
1 <--> id : 1.0
1 <--> id : 1.0
1 <--> id : 1.0
1 <--> id : 1.0
type <--> type : 1.0
type <--> type : 1.0
type <--> type : 1.0
type <--> type : 1.0
type <--> type : 1.0
type <--> type : 1.0
type <--> type : 1.0
type <--> type : 1.0
type <--> type : 1.0
type <--> type : 1.0
type <--> type : 1.0
type <--> type : 1.0
type <--> type : 1.0
type <--> type : 1.0
type <--> type : 1.0
type <--> type : 1.0
type <--> type : 1.0
type <--> type : 1.0
type <--> type : 1.0
type <--> type : 1.0
type <--> type : 1.0
type <--> type : 1.0
type <--> type : 1.0
type <--> type : 1.0
type <--> type : 1.0
type <--> type : 1.0
type <--> type : 1.0
Infrastructure <--> Infrastructure : 1.0
double <--> double : 1.0
Gradient <--> Gradient : 1.0
NetElement <--> NetElement : 1.0
unit <--> unit : 1.0
type <--> type : 1.0
type <--> type : 1.0
type <--> type : 1.0
type <--> type : 1.0
type <--> type : 1.0
type <--> type : 1.0
type <--> type : 1.0
type <--> type : 1.0
type <--> type : 1.0
type <--> type : 1.0
type <--> type : 1.0
type <--> type : 1.0
type <--> type : 1.0
type <--> type : 1.0
type <--> type : 1.0
type <--> type : 1.0
type <--> type : 1.0
type <--> type : 1.0
type <--> type : 1.0
type <--> type : 1.0
type <--> type : 1.0
type <--> type : 1.0
type <--> type : 1.0
type <--> type : 1.0
type <--> type : 1.0
type <--> type : 1.0
type <--> type : 1.0
id <--> id : 1.0
id <--> id : 1.0
id <--> id : 1.0
id <--> id : 1.0
id <--> id : 1.0
id <--> id : 1.0
id <--> id : 1.0
id <--> id : 1.0
id <--> id : 1.0
id <--> id : 1.0
id <--> id : 1.0
id <--> id : 1.0
id <--> id : 1.0
id <--> id : 1.0
id <--> id : 1.0
id <--> id : 1.0
id <--> id : 1.0
id <--> id : 1.0
id <--> id : 1.0
id <--> id : 1.0
id <--> id : 1.0
id <--> id : 1.0
id <--> id : 1.0
id <--> id : 1.0
id <--> id : 1.0
id <--> id : 1.0
id <--> id : 1.0
id <--> id : 1.0
id <--> id : 1.0
id <--> id : 1.0
id <--> id : 1.0
id <--> id : 1.0
id <--> id : 1.0
id <--> id : 1.0
id <--> id : 1.0
id <--> id : 1.0
id <--> id : 1.0
id <--> id : 1.0
id <--> id : 1.0
id <--> id : 1.0
id <--> id : 1.0
id <--> id : 1.0
id <--> id : 1.0
id <--> id : 1.0
id <--> id : 1.0
id <--> id : 1.0
id <--> id : 1.0
id <--> id : 1.0
id <--> id : 1.0
id <--> id : 1.0
id <--> id : 1.0
id <--> id : 1.0
id <--> id : 1.0
id <--> id : 1.0
id <--> id : 1.0
id <--> id : 1.0
id <--> id : 1.0
id <--> id : 1.0
id <--> id : 1.0
id <--> id : 1.0
id <--> id : 1.0
id <--> id : 1.0
id <--> id : 1.0
id <--> id : 1.0
id <--> id : 1.0
id <--> id : 1.0
id <--> id : 1.0
id <--> id : 1.0
id <--> id : 1.0
id <--> id : 1.0
id <--> id : 1.0
id <--> id : 1.0
id <--> id : 1.0
id <--> id : 1.0
id <--> id : 1.0
id <--> id : 1.0
id <--> id : 1.0
id <--> id : 1.0
id <--> id : 1.0
id <--> id : 1.0
id <--> id : 1.0
id <--> id : 1.0
id <--> id : 1.0
id <--> id : 1.0
id <--> id : 1.0
id <--> id : 1.0
id <--> id : 1.0
id <--> id : 1.0
id <--> id : 1.0
id <--> id : 1.0
id <--> id : 1.0
id <--> id : 1.0
id <--> id : 1.0
id <--> id : 1.0
id <--> id : 1.0
id <--> id : 1.0
id <--> id : 1.0
id <--> id : 1.0
id <--> id : 1.0
id <--> id : 1.0
id <--> id : 1.0
id <--> id : 1.0
id <--> id : 1.0
id <--> id : 1.0
id <--> id : 1.0
id <--> id : 1.0
id <--> id : 1.0
id <--> id : 1.0
id <--> id : 1.0
id <--> id : 1.0
id <--> id : 1.0
id <--> id : 1.0
id <--> id : 1.0
id <--> id : 1.0
id <--> id : 1.0
id <--> id : 1.0
id <--> id : 1.0
id <--> id : 1.0
id <--> id : 1.0
id <--> id : 1.0
id <--> id : 1.0
id <--> id : 1.0
id <--> id : 1.0
0..1 <--> unit : 1.0
epsgCode <--> epsgCode : 1.0
0..1 <--> radius : 1.0
0..1 <--> radius : 1.0
0..1 <--> radius : 1.0
boolean <--> boolean : 1.0
value <--> value : 1.0
value <--> value : 1.0
value <--> value : 1.0
value <--> value : 1.0
value <--> value : 1.0
value <--> value : 1.0
value <--> value : 1.0
value <--> value : 1.0
value <--> value : 1.0
value <--> value : 1.0
value <--> value : 1.0
value <--> value : 1.0
value <--> value : 1.0
value <--> value : 1.0
Common <--> Common : 1.0
string <--> string : 1.0
+height <--> height : 1.0
latitude <--> latitude : 1.0
description <--> description : 1.0
description <--> description : 1.0
description <--> description : 1.0
description <--> description : 1.0
description <--> description : 1.0
description <--> description : 1.0
description <--> description : 1.0
description <--> description : 1.0
description <--> description : 1.0
description <--> description : 1.0
description <--> description : 1.0
description <--> description : 1.0
BA <--> BA : 1.0
string <--> string : 1.0
AirTemperature <--> AirTemperature : 1.0
value <--> value : 1.0
value <--> value : 1.0
value <--> value : 1.0
value <--> value : 1.0
value <--> value : 1.0
value <--> value : 1.0
value <--> value : 1.0
value <--> value : 1.0
value <--> value : 1.0
value <--> value : 1.0
value <--> value : 1.0
value <--> value : 1.0
value <--> value : 1.0
value <--> value : 1.0
int <--> int : 1.0
x <--> x : 1.0
x <--> x : 1.0
x <--> x : 1.0
Crossing <--> Crossing : 1.0
RouteBody <--> RouteBody : 1.0
1 <--> elementA : 1.0
1 <--> orientation : 1.0
name <--> name : 1.0
name <--> name : 1.0
name <--> name : 1.0
name <--> name : 1.0
name <--> name : 1.0
name <--> name : 1.0
name <--> name : 1.0
name <--> name : 1.0
name <--> name : 1.0
name <--> name : 1.0
name <--> name : 1.0
name <--> name : 1.0
name <--> name : 1.0
name <--> name : 1.0
name <--> name : 1.0
name <--> name : 1.0
name <--> name : 1.0
isLocatedAt <--> isLocatedAt : 1.0
isLocatedAt <--> isLocatedAt : 1.0
+length <--> length : 1.0
+length <--> length : 1.0
+length <--> length : 1.0
+length <--> length : 1.0
+length <--> length : 1.0
+length <--> length : 1.0
+length <--> length : 1.0
+length <--> length : 1.0
+length <--> length : 1.0
+length <--> length : 1.0
+length <--> length : 1.0
+length <--> length : 1.0
Substation <--> Substation : 1.0
value <--> value : 1.0
value <--> value : 1.0
value <--> value : 1.0
value <--> value : 1.0
value <--> value : 1.0
value <--> value : 1.0
value <--> value : 1.0
value <--> value : 1.0
value <--> value : 1.0
value <--> value : 1.0
value <--> value : 1.0
value <--> value : 1.0
value <--> value : 1.0
value <--> value : 1.0
radius <--> radius : 1.0
radius <--> radius : 1.0
radius <--> radius : 1.0
AreaLocation <--> AreaLocation : 1.0
value <--> value : 1.0
value <--> value : 1.0
value <--> value : 1.0
value <--> value : 1.0
value <--> value : 1.0
value <--> value : 1.0
value <--> value : 1.0
value <--> value : 1.0
value <--> value : 1.0
value <--> value : 1.0
value <--> value : 1.0
value <--> value : 1.0
value <--> value : 1.0
value <--> value : 1.0
Infrastructure <--> Infrastructure : 1.0
AB <--> AB : 1.0
+length <--> length : 1.0
+length <--> length : 1.0
+length <--> length : 1.0
+length <--> length : 1.0
+length <--> length : 1.0
+length <--> length : 1.0
+length <--> length : 1.0
+length <--> length : 1.0
+length <--> length : 1.0
+length <--> length : 1.0
+length <--> length : 1.0
+length <--> length : 1.0
elementB <--> elementB : 1.0
RelativeHumidity <--> RelativeHumidity : 1.0
value <--> value : 1.0
value <--> value : 1.0
value <--> value : 1.0
value <--> value : 1.0
value <--> value : 1.0
value <--> value : 1.0
value <--> value : 1.0
value <--> value : 1.0
value <--> value : 1.0
value <--> value : 1.0
value <--> value : 1.0
value <--> value : 1.0
value <--> value : 1.0
value <--> value : 1.0
isLocatedAt <--> isLocatedAt : 1.0
string <--> string : 1.0
0..1 <--> isLocatedAt : 1.0
SubstationOutput <--> SubstationOutput : 1.0
longitude <--> longitude : 1.0
EA_Java_Types_Package <--> EA_Java_Types_Package : 1.0
y <--> y : 1.0
y <--> y : 1.0
y <--> y : 1.0
Weather <--> Weather : 1.0
z <--> z : 1.0
z <--> z : 1.0
z <--> z : 1.0
z <--> z : 1.0
Temperature <--> Temperature : 1.0
WeatherProperty <--> WeatherProperty : 1.0
+navigability <--> navigability : 1.0
Connection <--> Connection : 1.0
Ground <--> Ground : 1.0
EA_PrimitiveTypes_Package <--> EA_PrimitiveTypes_Package : 1.0
radius <--> radius : 1.0
radius <--> radius : 1.0
radius <--> radius : 1.0
TractionPost <--> TractionPost : 1.0
